%YAML 1.1
%TAG !u! tag:unity3d.com,2011:
--- !u!78 &1
TagManager:
  serializedVersion: 2
<<<<<<< HEAD
  tags: []
=======
  tags:
  - Button
  - GreenStone
  - RedStone
  - BlueStone
  - Door
  - Pickupable
  - DoorKnot
>>>>>>> 06ce9e6135805c18a1b0d20df37ee46b9f578e57
  layers:
  - Default
  - TransparentFX
  - Ignore Raycast
  - 
  - Water
  - UI
  - 
  - 
<<<<<<< HEAD
  - 
  - 
=======
  - Door layer
  - Wall Layer
>>>>>>> 06ce9e6135805c18a1b0d20df37ee46b9f578e57
  - 
  - 
  - 
  - 
  - 
  - 
  - 
  - 
  - 
  - 
  - 
  - 
  - 
  - 
  - 
  - 
  - 
  - 
  - 
  - 
  - 
  - 
  m_SortingLayers:
  - name: Default
    uniqueID: 0
    locked: 0
